<?xml version="1.0" encoding="UTF-8" standalone="no"?>
<!-- Created with Inkscape (http://www.inkscape.org/) -->

<svg
   width="7.4370651mm"
   height="7.4493484mm"
   viewBox="0 0 7.4370651 7.4493484"
   version="1.1"
   id="svg5"
   xmlns:inkscape="http://www.inkscape.org/namespaces/inkscape"
   xmlns:sodipodi="http://sodipodi.sourceforge.net/DTD/sodipodi-0.dtd"
   xmlns="http://www.w3.org/2000/svg"
   xmlns:svg="http://www.w3.org/2000/svg">
  <sodipodi:namedview
     id="namedview7"
     pagecolor="#ffffff"
     bordercolor="#000000"
     borderopacity="0.25"
     inkscape:showpageshadow="2"
     inkscape:pageopacity="0.0"
     inkscape:pagecheckerboard="0"
     inkscape:deskcolor="#d1d1d1"
     inkscape:document-units="mm"
     showgrid="false" />
  <defs
     id="defs2" />
  <g
     inkscape:label="Layer 1"
     inkscape:groupmode="layer"
     id="layer1"
     transform="translate(-95.08465,-74.380262)">
    <g
       aria-label="🡽"
       id="text1366"
       style="font-weight:bold;font-size:12.2962px;line-height:1;font-family:C059;-inkscape-font-specification:'C059 Bold';stroke-width:0.4;stroke-linejoin:round;paint-order:stroke fill markers">
      <path
         d="m 96.695457,81.829612 -1.610802,-1.610802 4.018708,-4.018708 h -3.283086 l 1.819838,-1.819837 h 4.881595 v 4.893887 l -1.80755,1.807542 v -3.283086 z"
         style="font-weight:normal;font-family:'Liberation Sans';-inkscape-font-specification:'Liberation Sans';fill:#ffffff"
         id="path1424"
         sodipodi:nodetypes="cccccccccc" />
    </g>
  </g>
</svg>
